<?xml version="1.0" encoding="utf-8"?>
<!-- Generator: Adobe Illustrator 15.0.2, SVG Export Plug-In . SVG Version: 6.00 Build 0)  -->
<!DOCTYPE svg PUBLIC "-//W3C//DTD SVG 1.1//EN" "http://www.w3.org/Graphics/SVG/1.1/DTD/svg11.dtd">
<svg version="1.1" id="Layer_1" xmlns="http://www.w3.org/2000/svg" xmlns:xlink="http://www.w3.org/1999/xlink" x="0px" y="0px"
	 width="50px" height="50px" viewBox="-12.5 26.5 50 50" enable-background="new -12.5 26.5 50 50" xml:space="preserve">
<g>
	<g id="Layer_1_1_">
	</g>
	<g id="Layer_2">
		<path fill="#FFFFFF" d="M16.593,38.361h-5.137l0.996-4.531L10.93,33.5l-4.556,4.861H0.547v6.215l-3.742,3.988L-3.5,49.941
			l4.048,0.896v13.475h10.278h1.593h9.388h1.607H26.5V46.51v-1.811v-6.338h-8.318H16.593L16.593,38.361z M1.916,39.719h3.181
			l-3.181,3.396V39.719z M-1.855,49.021l2.401-2.568l1.37-1.445l4.952-5.289l1.278-1.357l2.341-2.492l0.073,0.01l-0.542,2.482
			l-0.303,1.357L7.233,51.016l-5.317-1.172l-1.37-0.295L-1.855,49.021z M11.13,62.943H1.916V51.135l5.044,1.113l-1.549,6.889
			l1.375,0.299l1.551-6.891l3.149,0.697l0.268-1.23L8.61,51.316l2.543-11.598h5.136L11.13,62.943z M12.714,62.943l1.242-5.633
			l4.298-3.686l3.094,9.318H12.714L12.714,62.943z M25.131,62.943h-2.173l-3.445-10.371l5.619-4.873V62.943L25.131,62.943z
			 M25.131,45.891l-10.617,9.227l-0.072-0.02l3.432-15.379h7.257V45.891L25.131,45.891z"/>
	</g>
</g>
</svg>
